{
  "name": "API for Apartment rental ",
  "version": "1.0.0",
  "description": "A RESTful API for apartment rental services",
  "title": "Rentals API documentation",
  "url": "http://api.rentals.com",
  "sampleUrl": false,
  "defaultVersion": "0.0.0",
  "apidoc": "0.3.0",
  "generator": {
    "name": "apidoc",
    "time": "2018-03-09T10:40:05.905Z",
    "url": "http://apidocjs.com",
    "version": "0.17.6"
  }
}
